<?xml version="1.0" encoding="UTF-8"?>
<svg width="17px" height="11px" viewBox="0 0 17 11" version="1.1" xmlns="http://www.w3.org/2000/svg" xmlns:xlink="http://www.w3.org/1999/xlink">
    <!-- Generator: Sketch 49.3 (51167) - http://www.bohemiancoding.com/sketch -->
    <title>Adres Icon</title>
    <desc>Created with Sketch.</desc>
    <defs></defs>
    <g id="Contact" stroke="none" stroke-width="1" fill="none" fill-rule="evenodd">
        <g id="Contact-V1:-Desktop-HD" transform="translate(-141.000000, -482.000000)" stroke="#203667" stroke-width="2">
            <g id="Adres-Icon" transform="translate(141.000000, 482.000000)">
                <rect id="Rectangle" x="1" y="1" width="15" height="9" rx="2"></rect>
                <path d="M2.98389888,3 L7.95032819,6.74999351 L12.9838816,3 L2.98389888,3 Z" id="Rectangle-Copy"></path>
            </g>
        </g>
    </g>
</svg>