<?xml version="1.0" encoding="UTF-8"?>
<svg width="17px" height="16px" viewBox="0 0 17 16" version="1.1" xmlns="http://www.w3.org/2000/svg" xmlns:xlink="http://www.w3.org/1999/xlink">
    <!-- Generator: Sketch 49.3 (51167) - http://www.bohemiancoding.com/sketch -->
    <title>Group</title>
    <desc>Created with Sketch.</desc>
    <defs></defs>
    <g id="Contact" stroke="none" stroke-width="1" fill="none" fill-rule="evenodd">
        <g id="Contact-V1:-Desktop-HD" transform="translate(-141.000000, -423.000000)" stroke="#203667" stroke-width="2">
            <g id="Group" transform="translate(141.000000, 423.000000)">
                <path d="M16,1.5980388 L7.41499006,5.77152022 L7.41499006,1.61219017 L1.97850763,4.30845697 C1.51750945,4.5370927 1.38423416,4.62504602 1.26377723,4.74785047 C1.17596699,4.83737199 1.11725928,4.93201998 1.0760749,5.05046232 C1.0195787,5.21293996 1,5.37141635 1,5.88599736 L1,13.4361148 C1,14.0979667 1.03892159,14.2995193 1.1489459,14.5052468 C1.2300532,14.6569043 1.3430957,14.7699468 1.49475316,14.8510541 C1.70048072,14.9610784 1.90203328,15 2.5638852,15 L14.4361148,15 C15.0979667,15 15.2995193,14.9610784 15.5052468,14.8510541 C15.6569043,14.7699468 15.7699468,14.6569043 15.8510541,14.5052468 C15.9610784,14.2995193 16,14.0979667 16,13.4361148 L16,1.5980388 Z" id="Rectangle-Copy-2"></path>
                <rect id="Rectangle-Copy-3" x="6" y="11" width="5" height="4" rx="2"></rect>
            </g>
        </g>
    </g>
</svg>