<svg xmlns="http://www.w3.org/2000/svg" width="164" height="186" viewBox="0 0 164 186">
  <polygon fill="#D5D5D5" fill-rule="evenodd" points="0 45.97 82 0 164 45.97 164 139.323 82 186 0 139.323"/>
</svg>
