<?xml version="1.0" encoding="UTF-8"?>
<svg width="28px" height="29px" viewBox="0 0 28 29" version="1.1" xmlns="http://www.w3.org/2000/svg" xmlns:xlink="http://www.w3.org/1999/xlink">
    <!-- Generator: Sketch 49.3 (51167) - http://www.bohemiancoding.com/sketch -->
    <title>/Icons/Calendar</title>
    <desc>Created with Sketch.</desc>
    <defs>
        <rect id="path-1" x="4" y="0" width="5" height="7"></rect>
        <rect id="path-2" x="20" y="0" width="5" height="7"></rect>
        <rect id="path-3" x="12" y="0" width="5" height="7"></rect>
    </defs>
    <g id="Masterclass" stroke="none" stroke-width="1" fill="none" fill-rule="evenodd">
        <g id="Masterclass:-Desktop-HD" transform="translate(-1055.000000, -1182.000000)">
            <g id="Group-10-Copy" transform="translate(149.000000, 1146.000000)">
                <g id="Group-3" transform="translate(1.000000, 0.000000)">
                    <g id="Group-7">
                        <g id="/Icons/Calendar" transform="translate(905.000000, 36.000000)">
                            <rect id="Rectangle-3" fill="#C3C3C3" fill-rule="evenodd" x="0" y="4" width="28" height="25"></rect>
                            <g id="Rectangle-3-Copy">
                                <use fill="#C3C3C3" fill-rule="evenodd" xlink:href="#path-1"></use>
                                <rect stroke="#F1F1F1" stroke-width="1" x="4.5" y="0.5" width="4" height="6"></rect>
                            </g>
                            <g id="Rectangle-3-Copy-2">
                                <use fill="#C3C3C3" fill-rule="evenodd" xlink:href="#path-2"></use>
                                <rect stroke="#F1F1F1" stroke-width="1" x="20.5" y="0.5" width="4" height="6"></rect>
                            </g>
                            <g id="Rectangle-3-Copy-3">
                                <use fill="#C3C3C3" fill-rule="evenodd" xlink:href="#path-3"></use>
                                <rect stroke="#F1F1F1" stroke-width="1" x="12.5" y="0.5" width="4" height="6"></rect>
                            </g>
                            <text id="1" font-family="Lato-ExtraBold, Lato" font-size="14" font-weight="600" letter-spacing="0.9333334" fill="#FFFFFF">
                                <tspan x="10" y="23">1</tspan>
                            </text>
                        </g>
                    </g>
                </g>
            </g>
        </g>
    </g>
</svg>